%YAML 1.1
%TAG !u! tag:unity3d.com,2011:
--- !u!114 &11400000
MonoBehaviour:
  m_ObjectHideFlags: 0
  m_CorrespondingSourceObject: {fileID: 0}
  m_PrefabInstance: {fileID: 0}
  m_PrefabAsset: {fileID: 0}
  m_GameObject: {fileID: 0}
  m_Enabled: 1
  m_EditorHideFlags: 0
  m_Script: {fileID: 11500000, guid: 12722b7fe44355c40b634518d2e6bf95, type: 3}
  m_Name: RankCombo
  m_EditorClassIdentifier: 
  data:
  - knifeTypes: 0000000001000000330000001100000020000000220000001000000026000000280000002d0000002e0000002f0000001f0000000f000000320000003d000000
    maskTypes: 000000000b0000000f0000000100000014000000100000000d000000000000000b00000001000000
  - knifeTypes: 0000000001000000330000001100000020000000220000001000000026000000280000002d0000002e0000002f0000001f0000000f000000320000003d000000
    maskTypes: 010000001700000009000000030000001b0000001800000001000000010000000000000000000000
  - knifeTypes: 0000000001000000330000001100000020000000220000001000000026000000280000002d0000002e0000002f0000001f0000000f000000320000003d000000
    maskTypes: 0100000000000000080000001d0000001c0000000b00000001000000190000001e0000001f00000013000000120000001800000003000000
  - knifeTypes: 130000000b0000003300000014000000150000000a00000007000000230000002400000025000000270000001d0000001b0000000f000000320000003d000000
    maskTypes: 0200000001000000140000001200000008000000090000000e0000000f0000000a000000
  - knifeTypes: 130000000b0000003300000014000000150000000a00000007000000230000002400000025000000270000001d0000001b0000000f000000320000003d000000
    maskTypes: 16000000170000001c00000019000000020000000d0000000c00000006000000
  - knifeTypes: 1e000000290000002800000014000000150000000a0000000700000023000000240000003400000027000000360000001b0000003b0000002b0000003d000000
    maskTypes: 0200000004000000120000000800000007000000050000001a000000150000000e0000001e0000001f0000000c0000000a0000001700000012000000
  - knifeTypes: 1e000000290000002800000014000000150000000a0000000700000023000000240000003400000027000000360000001b0000003b0000002b0000003d000000
    maskTypes: 08000000080000001200000004000000130000000d00000008000000090000001d0000001e00000012000000110000001c0000001a000000
